XUEYAN HU Data Analysis Portfolio - Tidy Tuesday Exercise
…
I wonder if the time duration of the visible eclipse is correlated to the location of the observation.

# eclipse_annular_2023 new variable time duration
eclipse_annular_2023 <- eclipse_annular_2023 %>%
  mutate(
    eclipse_1_posix = as.POSIXct(eclipse_1, format = "%H:%M:%S"),
    eclipse_6_posix = as.POSIXct(eclipse_6, format = "%H:%M:%S"),
    time_duration_minutes = as.numeric(difftime(eclipse_6_posix, eclipse_1_posix, units = "mins"))
  )

# Display the updated dataset
print(eclipse_annular_2023)

# A tibble: 811 × 13
   state name        lat   lon eclipse_1 eclipse_2 eclipse_3 eclipse_4 eclipse_5
   <chr> <chr>     <dbl> <dbl> <time>    <time>    <time>    <time>    <time>   
 1 AZ    Chilchin…  36.5 -110. 15:10:50  15:56:20  16:30:29  16:33:31  17:09:40 
 2 AZ    Chinle     36.2 -110. 15:11:10  15:56:50  16:31:21  16:34:06  17:10:30 
 3 AZ    Del Muer…  36.2 -109. 15:11:20  15:57:00  16:31:13  16:34:31  17:10:40 
 4 AZ    Dennehot…  36.8 -110. 15:10:50  15:56:20  16:29:50  16:34:07  17:09:40 
 5 AZ    Fort Def…  35.7 -109. 15:11:40  15:57:40  16:32:28  16:34:35  17:11:30 
 6 AZ    Kayenta    36.7 -110. 15:10:40  15:56:00  16:29:54  16:33:21  17:09:10 
 7 AZ    Lukachuk…  36.4 -109. 15:11:20  15:57:10  16:30:50  16:35:05  17:10:50 
 8 AZ    Many Far…  36.3 -110. 15:11:10  15:56:50  16:30:50  16:34:16  17:10:20 
 9 AZ    Nazlini    35.9 -109. 15:11:20  15:57:10  16:32:24  16:33:30  17:10:50 
10 AZ    Oljato-M…  37.0 -110. 15:10:40  15:56:00  16:29:25  16:33:38  17:09:10 
# ℹ 801 more rows
# ℹ 4 more variables: eclipse_6 <time>, eclipse_1_posix <dttm>,
#   eclipse_6_posix <dttm>, time_duration_minutes <dbl>
…
# eclipse_total_2024 new variable time duration
eclipse_total_2024 <- eclipse_total_2024 %>%
  mutate(
    eclipse_1_posix = as.POSIXct(eclipse_1, format = "%H:%M:%S"),
    eclipse_6_posix = as.POSIXct(eclipse_6, format = "%H:%M:%S"),
    time_duration_minutes = as.numeric(difftime(eclipse_6_posix, eclipse_1_posix, units = "mins"))
  )

# Display the updated dataset
print(eclipse_total_2024)

# A tibble: 3,330 × 13
   state name        lat   lon eclipse_1 eclipse_2 eclipse_3 eclipse_4 eclipse_5
   <chr> <chr>     <dbl> <dbl> <time>    <time>    <time>    <time>    <time>   
 1 AR    Acorn      34.6 -94.2 17:30:40  18:15:50  18:47:35  18:51:37  19:23:40 
 2 AR    Adona      35.0 -92.9 17:33:20  18:18:30  18:50:08  18:54:22  19:26:10 
 3 AR    Alexander  34.6 -92.5 17:33:20  18:18:30  18:51:09  18:53:38  19:26:20 
 4 AR    Alicia     35.9 -91.1 17:37:30  18:22:40  18:54:29  18:58:05  19:29:50 
 5 AR    Alix       35.4 -93.7 17:32:50  18:17:50  18:49:54  18:53:00  19:25:20 
 6 AR    Alleene    33.8 -94.3 17:29:10  18:14:20  18:46:15  18:50:16  19:22:30 
 7 AR    Alpine     34.2 -93.4 17:31:10  18:16:30  18:48:36  18:52:10  19:24:30 
 8 AR    Altus      35.4 -93.8 17:32:50  18:17:40  18:49:58  18:52:54  19:25:10 
 9 AR    Amagon     35.6 -91.1 17:37:00  18:22:10  18:54:33  18:57:02  19:29:30 
10 AR    Amity      34.3 -93.5 17:31:10  18:16:20  18:48:22  18:52:12  19:24:20 
# ℹ 3,320 more rows
# ℹ 4 more variables: eclipse_6 <time>, eclipse_1_posix <dttm>,
#   eclipse_6_posix <dttm>, time_duration_minutes <dbl>
…
# Apply the function to generate the new variable
cleaned_eclipse_data <- cleaned_eclipse_data %>%
  mutate(area = mapply(classify_geographical_area, lat, lon))

# View the updated dataset
print(cleaned_eclipse_data)

# A tibble: 4,141 × 6
   state name                     lat   lon time_duration_minutes area 
   <chr> <chr>                  <dbl> <dbl>                 <dbl> <chr>
 1 AZ    Chilchinbito            36.5 -110.                  171. Other
 2 AZ    Chinle                  36.2 -110.                  172. Other
 3 AZ    Del Muerto              36.2 -109.                  172. Other
 4 AZ    Dennehotso              36.8 -110.                  171. Other
 5 AZ    Fort Defiance           35.7 -109.                  173. Other
 6 AZ    Kayenta                 36.7 -110.                  171. Other
 7 AZ    Lukachukai              36.4 -109.                  172. Other
 8 AZ    Many Farms              36.3 -110.                  172. Other
 9 AZ    Nazlini                 35.9 -109.                  172. Other
10 AZ    Oljato-Monument Valley  37.0 -110.                  171. Other
# ℹ 4,131 more rows
…
