XUEYAN HU Data Analysis Portfolio - fitting exercise
…
# Create data frames for training and test data predictions
train_plot_data <- data.frame(
  Observed = train_data$Y,
  Predicted = preds2
)

test_plot_data <- data.frame(
  Observed = test_data$Y,
  Predicted = test_pred
)
preds2

# A tibble: 90 × 8
   .pred     Y DOSE    AGE SEX      WT    HT residuals
   <dbl> <dbl> <fct> <int> <fct> <dbl> <dbl>     <dbl>
 1 3306. 3004. 50       28 0      83.2  1.74    -302. 
 2 1960. 1347. 25       41 0      81    1.75    -613. 
 3 2697. 2772. 37.5     28 0      78.3  1.72      74.9
 4 2083. 2028. 25       28 1      58.9  1.58     -55.4
 5 2898. 2353. 50       37 0      99.1  1.78    -545. 
 6 1267.  826. 25       30 0     105.   1.88    -441. 
 7 2431. 3866. 25       23 0      65.3  1.65    1434. 
 8 1981. 3126. 25       41 1      64.3  1.56    1145. 
 9 1567. 1108. 25       48 1      79.5  1.62    -459. 
10 2500. 2815. 37.5     26 0      84.5  1.77     315. 
# ℹ 80 more rows
…
