XUEYAN HU Data Analysis Portfolio - data exercise
…
# Create a data frame
bacterial_data <- tibble(
  Seed_Type = seed_types,
  Strain_Type = strain_types,
  Treatment = treatments,
  Day = days,
  Replication = replications,
  Bacterial_Population = bacterial_population
)

# Display the resulting dataset
print(bacterial_data)

# A tibble: 160 × 6
   Seed_Type Strain_Type Treatment   Day Replication Bacterial_Population
   <chr>     <chr>       <chr>     <dbl> <chr>                      <dbl>
 1 AL        F           A             0 1                          0.879
 2 AL        F           A             1 2                          2.54 
 3 AL        F           A             3 1                          9    
 4 AL        F           A             5 2                          9    
 5 AL        F           A             7 1                          9    
 6 AL        F           A             0 2                          5.43 
 7 AL        F           A             1 1                          3.92 
 8 AL        F           A             3 2                          6.99 
 9 AL        F           A             5 1                          9    
10 AL        F           A             7 2                          8.11 
# ℹ 150 more rows
…
